<?xml version="1.0" encoding="utf-8"?>
<!-- Generator: Adobe Illustrator 21.1.0, SVG Export Plug-In . SVG Version: 6.00 Build 0)  -->
<svg version="1.1" id="Calque_3" xmlns="http://www.w3.org/2000/svg" xmlns:xlink="http://www.w3.org/1999/xlink" x="0px" y="0px"
	 viewBox="0 0 175.3 175.3" style="enable-background:new 0 0 175.3 175.3;" xml:space="preserve">
<style type="text/css">
	.st0{fill:#FFFFFF;}
	.st1{fill:#F39732;}
</style>
<circle class="st0" cx="87.7" cy="87.7" r="87.7"/>
<g>
	<path class="st1" d="M111.4,133.6c-6.5,0-13.7-2.2-21.5-6.6c-7.7-4.3-14.9-10.2-21.5-17.6C52.7,92.2,44.8,73,44.8,52.4V51h12.1v1.4
		c0,17.8,7,34.4,20.7,49.2c9.3,10.1,18.6,16.4,27.7,18.9V51h12.1v82.6H111.4z"/>
	<path class="st1" d="M116,52.4v79.8h-4.6c-6.3,0-13.2-2.1-20.8-6.4c-7.6-4.3-14.6-10-21.2-17.3C53.9,91.4,46.2,72.7,46.2,52.4h9.3
		c0,18.3,7,35,21.1,50.2c10.1,11,20.2,17.6,30.2,19.8V52.4H116 M118.8,49.6H116h-9.3h-2.8v2.8v66.2c-8.3-2.7-16.8-8.8-25.3-18
		C65.1,86.1,58.3,69.9,58.3,52.4v-2.8h-2.8h-9.3h-2.8v2.8c0,21,8,40.5,23.9,58c6.7,7.4,14.1,13.4,21.9,17.8c8,4.5,15.4,6.8,22.2,6.8
		h4.6h2.8v-2.8V52.4V49.6L118.8,49.6z"/>
</g>
</svg>
